{
    broker: {
        
    },
    ble:{
        uart:{
            rx: "",
            tx: ""
        },
        manufacturer_id: {
            // datatype, formate, multiple sensor in one node
        }
    }
}